<svg xmlns="http://www.w3.org/2000/svg" width="73" height="50" viewBox="0 0 73 50">
  <g id="Grupo_17" data-name="Grupo 17" transform="translate(-1309 -50)">
    <path id="Caminho_8" data-name="Caminho 8" d="M20.43,0H22a25,25,0,0,1,0,50H0Z" transform="translate(1335 50)" fill="#1c3664"/>
    <path id="Retângulo_12" data-name="Retângulo 12" d="M47,0h0a0,0,0,0,1,0,0V50a0,0,0,0,1,0,0H0a0,0,0,0,1,0,0V47A47,47,0,0,1,47,0Z" transform="translate(1309 50)" fill="#1c3664"/>
  </g>
</svg>
