<?xml version="1.0" encoding="utf-8"?>
<!-- Generator: Adobe Illustrator 25.4.1, SVG Export Plug-In . SVG Version: 6.00 Build 0)  -->
<svg version="1.1" id="Camada_1" xmlns="http://www.w3.org/2000/svg" xmlns:xlink="http://www.w3.org/1999/xlink" x="0px" y="0px"
	 viewBox="0 0 24 24" style="enable-background:new 0 0 24 24;" xml:space="preserve">
<style type="text/css">
	.st0{fill:#633787;}
</style>
<g>
	<path class="st0" d="M7,16h10c0.55,0,1-0.45,1-1V9c0-0.55-0.45-1-1-1H7C6.45,8,6,8.45,6,9v6C6,15.55,6.45,16,7,16z M7,15v-3.5h10
		V15H7z M17,9v1.5H7V9H17z"/>
	<path class="st0" d="M9.5,12.5h-1C8.22,12.5,8,12.72,8,13v0.5C8,13.78,8.22,14,8.5,14h1c0.28,0,0.5-0.22,0.5-0.5V13
		C10,12.72,9.78,12.5,9.5,12.5z"/>
</g>
</svg>
