<?xml version="1.0" encoding="utf-8"?>
<!-- Generator: Adobe Illustrator 24.1.2, SVG Export Plug-In . SVG Version: 6.00 Build 0)  -->
<svg version="1.1"
	 id="Camada_1" xmlns:cc="http://creativecommons.org/ns#" xmlns:dc="http://purl.org/dc/elements/1.1/" xmlns:inkscape="http://www.inkscape.org/namespaces/inkscape" xmlns:rdf="http://www.w3.org/1999/02/22-rdf-syntax-ns#" xmlns:sodipodi="http://sodipodi.sourceforge.net/DTD/sodipodi-0.dtd" xmlns:svg="http://www.w3.org/2000/svg"
	 xmlns="http://www.w3.org/2000/svg" xmlns:xlink="http://www.w3.org/1999/xlink" width="59" viewBox="0 0 385 347"
	 style="enable-background:new 0 0 385 347;" xml:space="preserve">
<style type="text/css">
	.st0{fill-rule:evenodd;clip-rule:evenodd;fill:#20211F;}
</style>
<path class="st0" d="M20.9,104.5l280.7-63.7l-3.9-17.2c-1.1-4.9-6-8-10.8-6.9l-263,59.2c-4.9,1.1-8,6-6.9,10.8
	C18.3,92.8,19.5,98.7,20.9,104.5L20.9,104.5z M18.6,60.5L284.9,0.6c12.7-2.9,25.4,5.1,28.2,17.8l27.9,123.4h-16.7l-12.7-55.9
	L31,149.6l17.4,76.6L50,233c0.6,2.7,3.3,4.5,6.1,3.8l2.1-0.5v16.3l-0.3,0.1c-10.5,2.4-21-4.3-23.5-14.8L0.6,88.8
	c-1.4-6.4-0.4-12.3,3.1-17.8C7.1,65.4,12.2,61.9,18.6,60.5L18.6,60.5L18.6,60.5z M87.7,146.2c-13,0-23.6,10.6-23.6,23.6v153.5
	c0,13,10.6,23.6,23.6,23.6h273.1c13,0,23.6-10.6,23.6-23.6V169.9c0-13-10.6-23.6-23.6-23.6L87.7,146.2L87.7,146.2L87.7,146.2z
	 M355.1,215c0-10.4,0-20.8,0-31.2c0-2-1.6-3.6-3.6-3.6c-23.3,0-46.6,0-69.9,0c-2,0-3.6,1.6-3.6,3.6c0,10.4,0,20.8,0,31.2
	c0,2,1.6,3.6,3.6,3.6c23.3,0,46.6,0,69.9,0C353.4,218.6,355.1,217,355.1,215L355.1,215z"/>
</svg>
