<svg xmlns="http://www.w3.org/2000/svg" xmlns:xlink="http://www.w3.org/1999/xlink" version="1.1" id="Camada_1" x="0px" y="0px" viewBox="0 0 1920 1080" style="enable-background:new 0 0 1920 1080;" xml:space="preserve">
<style type="text/css">
	.st0{fill:#575756;}
	
		.st1{clip-path:url(#SVGID_00000147929989269758597900000000827217551047039622_);fill:url(#SVGID_00000109744964963818417110000001194157917878324100_);}
</style>
<g>
	<path class="st0" d="M984.89,861.24c-37.67,0-64.02-10.28-79.19-30.72c-15.3-20.44-22.88-45.12-22.88-74.05V519.29h-80.22V435.6   h80.22V314.01c34.06-0.17,66.41-17.07,98.34-38.01v159.6h82.79v83.69h-82.79v230.88c0,6.43,0.13,11.18,0.38,14.27   c0.52,5.79,1.54,9.38,2.96,10.93c1.54,1.54,5.01,2.18,10.54,2.18c8.1,0,19.93-0.26,35.48-0.64l8.23-0.38   c1.8-0.26,4.37-0.39,7.97-0.39h17.61v82.02l-8.61,0.38l-14.65,0.77c-4.76,0.26-12.98,0.64-24.68,1.16   C1004.69,860.99,994.28,861.24,984.89,861.24"/>
	<path class="st0" d="M1271.31,531.56c-66.22,0-119.9,53.68-119.9,119.9c0,66.23,53.68,119.91,119.9,119.91   c66.23,0,119.91-53.68,119.91-119.91C1391.22,585.24,1337.54,531.56,1271.31,531.56 M1272.4,869.47   c-47.05,0-86.9-11.06-119.55-33.3c-32.78-22.24-57.33-50.14-73.53-83.56c-16.2-33.55-24.3-66.98-24.3-100.4   c0-33.42,8.1-66.85,24.3-100.14c16.2-33.42,40.75-61.19,73.53-83.3c32.65-22.11,72.5-33.17,119.55-33.17   c21.6,0,42.29,2.83,62.35,8.49c19.93,5.65,38.44,13.75,55.53,24.3V248.4c32.82-0.75,65.55-14.63,98.21-38.04v650.11h-98.21V836.3   c-16.84,10.54-35.35,18.77-55.53,24.55C1314.43,866.64,1293.74,869.47,1272.4,869.47z"/>
	<g>
		<defs>
			<path id="SVGID_1_" d="M1635.9,683.27c-51.42,0-93.1,41.68-93.1,93.1c0,51.42,41.68,93.1,93.1,93.1c51.42,0,93.1-41.68,93.1-93.1     C1729,724.95,1687.32,683.27,1635.9,683.27"/>
		</defs>
		<clipPath id="SVGID_00000110430588658182615910000012341570448540494217_">
			<use xlink:href="#SVGID_1_" style="overflow:visible;"/>
		</clipPath>
		
			<linearGradient id="SVGID_00000156551922340195696320000013725790768618553005_" gradientUnits="userSpaceOnUse" x1="1729" y1="776.3732" x2="1542.7993" y2="776.3733">
			<stop offset="0" style="stop-color:#00509F"/>
			<stop offset="1" style="stop-color:#00ADB1"/>
		</linearGradient>
		
			<rect x="1542.8" y="683.27" style="clip-path:url(#SVGID_00000110430588658182615910000012341570448540494217_);fill:url(#SVGID_00000156551922340195696320000013725790768618553005_);" width="186.2" height="186.2"/>
	</g>
	<path class="st0" d="M290.01,860.47h-98.73V501.73c73.01,0,105.22-64.59,175.22-64.59c24.55,0,47.57,3.6,68.91,10.93   c21.34,7.33,39.59,18,54.89,32.01c15.68-14.01,34.06-24.68,55.4-32.01c21.34-7.33,44.61-10.93,69.68-10.93   c38.95,0,71.35,7.84,97.31,23.4c26.1,15.56,45.25,35.61,57.72,60.42c12.34,24.68,18.64,51.03,18.64,78.93v260.58h-99.12V609.67   c0-60.29-25.32-90.37-76.1-90.37c-27.26,0-46.54,8.61-57.59,25.71c-11.06,17.23-16.58,38.82-16.58,64.66v250.81h-98.21V609.67   c0-26.35-5.78-48.08-17.23-65.05c-11.44-16.84-31.24-25.33-59.65-25.33c-27.38,0-46.67,8.61-57.85,25.97   c-11.18,17.36-16.71,38.82-16.71,64.41V860.47z"/>
</g>
</svg>