<svg width="28" height="32" viewBox="0 0 28 32" fill="none" xmlns="http://www.w3.org/2000/svg">
<path fill-rule="evenodd" clip-rule="evenodd" d="M4.45584 3.91726C-0.767179 9.14025 -0.76718 17.6084 4.45583 22.8314L13.2058 31.5814C13.5964 31.972 14.2295 31.972 14.6201 31.5814L23.3701 22.8314C28.5931 17.6084 28.5931 9.14025 23.3701 3.91726C18.147 -1.30576 9.67885 -1.30576 4.45584 3.91726ZM8.06369 13.0251C8.06369 9.71145 10.75 7.02515 14.0637 7.02515C17.3774 7.02515 20.0637 9.71145 20.0637 13.0251C20.0637 16.3388 17.3774 19.0251 14.0637 19.0251C10.75 19.0251 8.06369 16.3388 8.06369 13.0251Z" fill="#EB6A18"/>
</svg>
