<svg id="Grupo_12" data-name="Grupo 12" xmlns="http://www.w3.org/2000/svg" width="29.347" height="32.786" viewBox="0 0 29.347 32.786">
  <g id="Grupo_9" data-name="Grupo 9" transform="translate(6.163)">
    <g id="Grupo_8" data-name="Grupo 8">
      <path id="Caminho_4" data-name="Caminho 4" d="M119.3,0a8.512,8.512,0,1,0,8.512,8.512A8.535,8.535,0,0,0,119.3,0Z" transform="translate(-110.791)" fill="#1c3664"/>
    </g>
  </g>
  <g id="Grupo_11" data-name="Grupo 11" transform="translate(0 17.634)">
    <g id="Grupo_10" data-name="Grupo 10">
      <path id="Caminho_5" data-name="Caminho 5" d="M53.449,254.034a7.936,7.936,0,0,0-.855-1.561,10.581,10.581,0,0,0-7.323-4.609,1.567,1.567,0,0,0-1.078.26,9.074,9.074,0,0,1-10.706,0,1.4,1.4,0,0,0-1.078-.26,10.5,10.5,0,0,0-7.323,4.609,9.149,9.149,0,0,0-.855,1.561.79.79,0,0,0,.037.706,14.826,14.826,0,0,0,1,1.487,14.122,14.122,0,0,0,1.71,1.933,22.286,22.286,0,0,0,1.71,1.487,16.951,16.951,0,0,0,20.221,0,16.348,16.348,0,0,0,1.71-1.487,17.159,17.159,0,0,0,1.71-1.933,13.032,13.032,0,0,0,1-1.487A.634.634,0,0,0,53.449,254.034Z" transform="translate(-24.165 -247.841)" fill="#1c3664"/>
    </g>
  </g>
</svg>
