<svg width="35" height="31" viewBox="0 0 35 31" fill="none" xmlns="http://www.w3.org/2000/svg">
<path d="M29.7344 0H5.2981C4.61965 -6.25008e-07 3.94785 0.135853 3.32114 0.399791C2.69442 0.663729 2.12507 1.05057 1.64565 1.5382C1.16624 2.02583 0.786166 2.60467 0.527167 3.24162C0.268168 3.87857 0.135327 4.56114 0.136241 5.25028V19.0627C0.13487 19.7522 0.267373 20.4351 0.526167 21.0725C0.784961 21.7098 1.16496 22.2891 1.64442 22.7771C2.12388 23.2651 2.69338 23.6522 3.32033 23.9164C3.94728 24.1806 4.61936 24.3165 5.2981 24.3165H7.08824V28.9066C7.08824 31.0851 8.37784 31.657 9.95246 30.1776L16.1884 24.3165H29.7448C30.4227 24.3151 31.0936 24.1781 31.7194 23.9134C32.3451 23.6486 32.9134 23.2612 33.3917 22.7733C33.8701 22.2855 34.2492 21.7067 34.5073 21.07C34.7654 20.4334 34.8976 19.7513 34.8962 19.0627V5.25028C34.8971 4.56114 34.7643 3.87857 34.5053 3.24162C34.2463 2.60467 33.8662 2.02583 33.3868 1.5382C32.9074 1.05057 32.3381 0.663729 31.7113 0.399791C31.0846 0.135853 30.4128 -6.25008e-07 29.7344 0ZM10.4669 14.5045C10.0698 14.5072 9.68097 14.3898 9.34988 14.1672C9.01879 13.9445 8.76049 13.6268 8.60792 13.2544C8.45536 12.882 8.41544 12.4719 8.49326 12.0764C8.57109 11.6809 8.76312 11.3179 9.04488 11.0337C9.32664 10.7495 9.68535 10.557 10.0753 10.4807C10.4652 10.4045 10.8686 10.4479 11.2341 10.6055C11.5996 10.7631 11.9106 11.0277 12.1275 11.3655C12.3444 11.7034 12.4572 12.0992 12.4517 12.5025C12.4462 13.0342 12.2349 13.5423 11.8635 13.9169C11.4921 14.2916 10.9904 14.5026 10.4669 14.5045ZM17.4954 14.5045C17.1004 14.501 16.7153 14.3787 16.3887 14.153C16.0621 13.9274 15.8086 13.6084 15.6603 13.2366C15.512 12.8647 15.4755 12.4565 15.5554 12.0636C15.6353 11.6706 15.8281 11.3106 16.1093 11.0288C16.3906 10.7471 16.7477 10.5563 17.1356 10.4806C17.5235 10.4049 17.9248 10.4476 18.2888 10.6034C18.6529 10.7592 18.9633 11.0211 19.1809 11.3559C19.3985 11.6908 19.5135 12.0836 19.5115 12.4849C19.5042 13.0234 19.2886 13.5374 18.9114 13.9159C18.5342 14.2945 18.0256 14.5071 17.4954 14.508V14.5045ZM24.5656 14.5045C24.1703 14.5066 23.7832 14.3895 23.4534 14.1682C23.1236 13.9469 22.8658 13.6311 22.7126 13.261C22.5594 12.8908 22.5178 12.4828 22.5929 12.0886C22.668 11.6944 22.8565 11.3316 23.1345 11.0462C23.4126 10.7608 23.7677 10.5656 24.155 10.4852C24.5423 10.4048 24.9444 10.4429 25.3104 10.5946C25.6764 10.7463 25.9899 11.0049 26.2112 11.3376C26.4325 11.6703 26.5518 12.0622 26.5538 12.4637C26.5561 12.7307 26.5064 12.9956 26.4076 13.243C26.3088 13.4905 26.1628 13.7157 25.9781 13.9057C25.7933 14.0957 25.5734 14.2467 25.331 14.35C25.0886 14.4534 24.8285 14.5071 24.5656 14.508V14.5045Z" fill="#282D2F"/>
</svg>
