{
    "flex-layout.row#footer-bottom": {
		"children": [
            "flex-layout.col#social", 
            "flex-layout.col#how-to-pay",
			"flex-layout.col#vazio",
            "flex-layout.col#seals"
        ],
		"props": {
			"blockClass": "footer-bottom-row"
		}
	},
    "flex-layout.col#social": {
        "children": ["rich-text#social-title", "social-networks"]
    },
    "flex-layout.col#how-to-pay": {
        "children": ["rich-text#how-to-pay-title", "flex-layout.row#footer-pagamento"]
    },
	"flex-layout.col#vazio": {
        "children": []
    },
    "flex-layout.col#seals": {
        "children": ["rich-text#seals-title", "image#selo-pci"],
		"props": {
			"blockClass": "footer-bottom-selos"
		}
    },
    "rich-text#social-title": {
		"props": {
			"textAlignment": "LEFT",
			"textPosition": "LEFT",
			"text": "#### Siga Utilizatto",
			"textColor": "c-on-base--inverted"
		}
	},
	"social-networks": {
		"props": {
			"socialNetworks": [
				{ "url": "https://www.facebook.com/profile.php?id=100077901853495", "name": "Facebook" },
				{ "url": "https://instagram.com/utilizattooficial?utm_medium=copy_link", "name": "Instagram" }
			],
			"showInColor":false
		}
  	},
    "rich-text#how-to-pay-title": {
		"props": {
			"textAlignment": "LEFT",
			"textPosition": "LEFT",
			"text": "#### Como pagar",
			"textColor": "c-on-base--inverted"
		}
	},
	"flex-layout.row#footer-pagamento":{
		"children": [
			"image#visa",
			"image#mastercard",
			"image#amex",
			"image#hipercard",
			"image#elo"
			//"image#boleto"
		],
		"props": {
			"blockClass": "footer-bottom-pagamentos"
		}
	},
	"image#visa": {
		"props": {
		"src": "assets/svg/Visa.svg",
		"width": "75",
		"link": "",
		"alt": "visa",
		"title": "visa",
		"blockClass": "footer-meios-pagamentos"
		}
  	},
	  "image#mastercard": {
		"props": {
		"src": "assets/svg/Mastercard.svg",
		"width": "75",
		"link": "",
		"alt": "mastercard",
		"title": "mastercard"
		}
  	},
	  "image#amex": {
		"props": {
		"src": "assets/svg/Amex.svg",
		"width": "75",
		"link": "",
		"alt": "amex",
		"title": "amex"
		}
  	},
	"image#hipercard": {
		"props": {
		"src": "assets/svg/Hipercard.svg",
		"width": "75",
		"link": "",
		"alt": "hipercard",
		"title": "hipercard"
		}
  	},
	"image#elo": {
		"props": {
		"src": "assets/svg/Elo.svg",
		"width": "75",
		"link": "",
		"alt": "elo",
		"title": "Elo"
		}
  	},
	"image#boleto": {
		"props": {
		"src": "assets/svg/Boleto.svg",
		"width": "75",
		"link": "",
		"alt": "Boleto",
		"title": "Boleto"
		}
  	},
	"accepted-payment-methods": {
		"props": {
			"paymentMethods": ["mastercard", "visa", "diners club"],
			"showInColor": true
		}
  	},
    "rich-text#seals-title": {
		"props": {
			"textAlignment": "LEFT",
			"textPosition": "LEFT",
			"text": "#### Loja segura",
			"textColor": "c-on-base--inverted"
		}
	},
	"powered-by": {
		"props": {
			"showInColor": true
		}
	},
	"image#selo-pci": {
		"props": {
		"src": "https://io.vtex.com.br/front-libs/assets/pci/vtex-pci-100.png",
		"maxHeight": "62",
		"link": "http://secure.vtex.com/?an=tfcvb6",
		"alt": "Loja Segura - VTEX PCI Certified",
		"title": "Loja Segura - VTEX PCI Certified"
		}
  	},
	"flex-layout.row#footer-bottom-copyright": {
		"children": [
			"flex-layout.col#copyright",
			"flex-layout.row#powered-by"
        ],
		"props": {
			"blockClass": "footer-bottom-row-copyright"
		}
	},
  	"flex-layout.col#copyright": {
		"children": ["rich-text#copyright-text"],
		"props": {
			"blockClass": "footer-copyright",
			"width": "80%"
		}
	},
	"rich-text#copyright-text": {
		"props": {
			"textAlignment": "LEFT",
			"textPosition": "LEFT",
			"text": "Razão social: UTILIZATTO COMERCIO DE ARTIGOS DE BAZAR SOCIEDADE UNIPESSOAL LTDA. CNPJ:45.386.030/0001-16 - Endereço: R. Eustáquio Azevedo, 1459 - Chácaras Arcampo, Duque de Caxias - RJ, 25251-600",
			"textColor": "c-on-base--inverted"
		}
	},
	"flex-layout.row#powered-by":{
		"children": [
			"rich-text#powered-text",
			"image#metodo",
			"image#vtex"
		],
		"props": {
			"blockClass": "footer-bottom-powered",
			"width": "20%"
		}
	},
	"rich-text#powered-text": {
		"props": {
			"textAlignment": "LEFT",
			"textPosition": "LEFT",
			"text": "Powered By",
			"textColor": "c-on-base--inverted",
			"blockClass": "title-powered"
		}
	},
	"image#metodo": {
		"props": {
		"src": "assets/svg/logoMtd.svg",
		"width": "65",
		"link": "",
		"alt": "Metodo",
		"title": "Metodo"
		}
	},
	"image#vtex": {
		"props": {
		"src": "assets/svg/vtex.svg",
		"width": "65",
		"link": "",
		"alt": "Vtex",
		"title": "Vtex"
		}
	}
}