{
  "store.orderplaced": {
    "blocks": ["order-placed"]
  },

  "store.account": {
    "blocks": ["my-account"],
    "parent": {
      "challenge": "challenge.profile"
    }
  },

  "store.login": {
    "blocks": ["login-content#default"]
  },

  "login-content#default": {
    "props": {
      "isInitialScreenOptionOnly": false,
      "defaultOption": 1,
      "showPasswordVerificationIntoTooltip": true
    }
  },

  "product-summary.shelf": {
    "children": [
      "product-summary-image",
      "product-summary-add-to-list-button",
      "product-summary-name",
      "product-rating-inline",
      "product-summary-space",
      "product-summary-price",
      "product-identifier.summary",
      "add-to-cart-button"
    ]
  },
  "product-summary-image": {
    "props": {
      "showBadge": true,
      "height": 220
    }
  },
  "newsletter":{
    "props":{
      "label":"CADASTRE-SE E RECEBA NOSSAS NOVIDADES",
      "submit":"CADASTRAR",
      "placeholder":"Digite aqui o seu E-mail"
    }
  }

}
