{
  "store.custom#faq": {
    "children": [
      "flex-layout.row#faq"
    ]
  },

  "flex-layout.row#faq": {
    "props": {
      "blockClass": [
        "faq",
        "pg-institucional"
      ]
    },
    
    "children": [
      "flex-layout.col#faq"
    ]
  },

  "flex-layout.col#faq": {
    "children": [
      "rich-text#faq",
      "disclosure-layout-group#group"
    ]
  },
  "rich-text#faq": {
    "props": {
      "text": "## Perguntas Frequentes",
      "textPosition":"CENTER"
    }
  },

  "disclosure-layout-group#group": {
    "children": [
      "disclosure-layout#first",
     "disclosure-layout#second",
      "disclosure-layout#third",
      "disclosure-layout#fourth",
      "disclosure-layout#five",
      "disclosure-layout#six",
      "disclosure-layout#seven",
      "disclosure-layout#eight",
      "disclosure-layout#none",
      "disclosure-layout#ten",
      "disclosure-layout#eleven",
      "disclosure-layout#twelve",
      "disclosure-layout#thirteen",
      "disclosure-layout#fourteen",
      "disclosure-layout#fifteen"
      //"disclosure-layout#sixteen"
    ]
  },

  "disclosure-layout#first": {
    "props": {
      "animated": true
    },
    "children": ["disclosure-trigger#first", "disclosure-content#first"]
  },
  "disclosure-trigger#first": {
    "props": {
      "blockClass": "question",
      "as": "div"
    },
    "children": ["rich-text#question1","disclosure-state-indicator"]
  },
  "disclosure-content#first": {
    "props": {
      "blockClass": "answer"
    },
    "children": ["rich-text#answer1"]
  },
  "rich-text#question1": {
    "props": {
      "text": "Qual é o ramo de trabalho da UtiliZatto?"
    }
  },
  "rich-text#answer1": {
    "props": {
      "text": "O Grupo UtiliZatto foi criado em 2022 para fazer parte do dia-dia das pessoas que buscam praticidades, modernidade e funcionalidade.  A empresa vem se consolidando junto com seus parceiros, sendo uma grande marca. Atualmente , nossa linha possui aproximadamente mais de 1000 iteis em nosso portfólio."
    }
  },

  "disclosure-layout#second": {
    "props": {
      "animated": true
    },
    "children": ["disclosure-trigger#second", "disclosure-content#second"]
  },
  "disclosure-trigger#second": {
    "props": {
      "blockClass": "question",
      "as": "div"
    },
    "children": ["rich-text#question2","disclosure-state-indicator"]
  },
  "disclosure-content#second": {
    "props": {
      "blockClass": "answer"
    },
    "children": ["rich-text#answer2"]
  },
  "rich-text#question2": {
    "props": {
      "text": "Qual o prazo para troca ?"
    }
  },
  "rich-text#answer2": {
    "props": {
      "text": "No ato do recebimento da compra, verifique as condições da embalagem. Recuse o recebimento caso: \n\n - A embalagem estiver aberta ou avariada; \n\n - O produto esteja em desacordo com o pedido; \n\n - O pedido esteja incompleto; \n\n Em um eventual caso de troca por defeito, o cliente tem o prazo legal de até 90 dias após o recebimento do produto para solicitar a troca, conforme estabelecido no artigo 26, Inciso I do Código do Consumidor."
    }
  },


  "disclosure-layout#third": {
    "props": {
      "animated": true
    },
    "children": ["disclosure-trigger#third", "disclosure-content#third"]
  },
  "disclosure-trigger#third": {
    "props": {
      "blockClass": "question",
      "as": "div"
    },
    "children": ["rich-text#question3","disclosure-state-indicator"]
  },
  "disclosure-content#third": {
    "props": {
      "blockClass": "answer"
    },
    "children": ["rich-text#answer3"]
  },
  "rich-text#question3": {
    "props": {
      "text": "Qual o prazo para desistência?"
    }
  },
  "rich-text#answer3": {
    "props": {
      "text": "Conforme o Artigo 49 do Código de Defesa do Consumidor, o cliente tem até 7 (sete) dias corridos, contados a partir da data de recebimento do produto para comunicar a intenção da devolução por arrependimento do produto à CENTRAL DE ATENDIMENTO  UTILIZATTO pelo email sac@utilizatto.com.br  ou pelo nosso whatsApp  (21) 97967-6893. O estorno do valor será realizado imediatamente após o recebimento do produto no centro de distribuição, desde que não sejam constatados violação da embalagem original ou índice de uso do produto, e o produto esteja acompanhado da nota fiscal."
    }
  },


  "disclosure-layout#fourth": {
    "props": {
      "animated": true
    },
    "children": ["disclosure-trigger#fourth", "disclosure-content#fourth"]
  },
  "disclosure-trigger#fourth": {
    "props": {
      "blockClass": "question",
      "as": "div"
    },
    "children": ["rich-text#question4","disclosure-state-indicator"]
  },
  "disclosure-content#fourth": {
    "props": {
      "blockClass": "answer"
    },
    "children": ["rich-text#answer4"]
  },
  "rich-text#question4": {
    "props": {
      "text": "Qual é o site da UtiliZatto?"
    }
  },
  "rich-text#answer4": {
    "props": {
      "text": "Site oficial www.utilizatto.com.br"
    }
  },
  

  "disclosure-layout#five": {
    "props": {
      "animated": true
    },
    "children": ["disclosure-trigger#five", "disclosure-content#five"]
  },
  "disclosure-trigger#five": {
    "props": {
      "blockClass": "question",
      "as": "div"
    },
    "children": ["rich-text#question5","disclosure-state-indicator"]
  },
  "disclosure-content#five": {
    "props": {
      "blockClass": "answer"
    },
    "children": ["rich-text#answer5"]
  },
  "rich-text#question5": {
    "props": {
      "text": "Troca de site, pode ser realizada em loja física?"
    }
  },
  "rich-text#answer5": {
    "props": {
      "text": "Não, somente pelo site. O cliente deverá abrir um chamado pela CENTRAL DE ATENDIMENTO UTILIZATTO via e-mail sac@utilizatto.com.br"
    }
  },

  "disclosure-layout#six": {
    "props": {
      "animated": true
    },
    "children": ["disclosure-trigger#six", "disclosure-content#six"]
  },
  "disclosure-trigger#six": {
    "props": {
      "blockClass": "question",
      "as": "div"
    },
    "children": ["rich-text#question6","disclosure-state-indicator"]
  },
  "disclosure-content#six": {
    "props": {
      "blockClass": "answer"
    },
    "children": ["rich-text#answer6"]
  },
  "rich-text#question6": {
    "props": {
      "text": "Recebi meu pedido faltando acessórios! O que devo fazer ?"
    }
  },
  "rich-text#answer6": {
    "props": {
      "text": "Certifique-se que os acessórios não estão à parte na embalagem. Por exemplo, alguns produtos mantêm os acessórios encaixados na parte de dentro do produto. \n\n Caso não localize, entre em contato através das opções disponíveis em nosso <Fale Conosco>. Essa falta deverá ser comunicada no ato da entrega, caso esteja faltando itens, não receba o produto."
    }
  },

  "disclosure-layout#seven": {
    "props": {
      "animated": true
    },
    "children": ["disclosure-trigger#seven", "disclosure-content#seven"]
  },
  "disclosure-trigger#seven": {
    "props": {
      "blockClass": "question",
      "as": "div"
    },
    "children": ["rich-text#question7","disclosure-state-indicator"]
  },
  "disclosure-content#seven": {
    "props": {
      "blockClass": "answer"
    },
    "children": ["rich-text#answer7"]
  },
  "rich-text#question7": {
    "props": {
      "text": "Recebi um produto diferente da minha compra. O que devo fazer ?"
    }
  },
  "rich-text#answer7": {
    "props": {
      "text": "Caso tenha recebido um produto em desacordo com o pedido, você deverá recusar a entrega e entrar em contato conosco. Via SAC ou sac@utilizatto.com.br \n\n Caso já tenha recebido o produto, o contato deverá ser realizado em até 07 (sete) dias após o recebimento. \n\n O produto retornado ao nosso Centro de Distribuição, deverá estar de acordo com as normas de Política de Envio, Troca e Devolução.  \n\n O produto divergente será trocado de acordo com o realizado no pedido. \n\n O contato, poderá ser feito através das opções disponíveis em nosso <Fale Conosco>"
    }
  },

  "disclosure-layout#eight": {
    "props": {
      "animated": true
    },
    "children": ["disclosure-trigger#eight", "disclosure-content#eight"]
  },
  "disclosure-trigger#eight": {
    "props": {
      "blockClass": "question",
      "as": "div"
    },
    "children": ["rich-text#question8","disclosure-state-indicator"]
  },
  "disclosure-content#eight": {
    "props": {
      "blockClass": "answer"
    },
    "children": ["rich-text#answer8"]
  },
  "rich-text#question8": {
    "props": {
      "text": "Recebi um produto com defeito. O que devo fazer ?"
    }
  },
  "rich-text#answer8": {
    "props": {
      "text": "O frete é calculado automaticamente, a partir dos produtos selecionados e do CEP de entrega do cliente.Caso tenha recebido um produto com defeito de fábrica, você deverá recusar a entrega e entrar em contato conosco. Através da Central de Atendimento UtiliZatto whatsApp  (21) 97967-6893 ou pelo sac@utilizatto.com.br. \n\n Caso você veja o defeito após, você terá 07(sete dias) dias a contar da data do recebimento, você poderá solicitar a troca ou o cancelamento da compra. A solicitação poderá ser feita através das opções disponíveis em nosso <Fale Conosco>"
    }
  },
  "disclosure-layout#none": {
    "props": {
      "animated": true
    },
    "children": ["disclosure-trigger#none", "disclosure-content#none"]
  },
  "disclosure-trigger#none": {
    "props": {
      "blockClass": "question",
      "as": "div"
    },
    "children": ["rich-text#question9","disclosure-state-indicator"]
  },
  "disclosure-content#none": {
    "props": {
      "blockClass": "answer"
    },
    "children": ["rich-text#answer9"]
  },
  "rich-text#question9": {
    "props": {
      "text": "Meu produto apresentou defeito fora dos 07(sete) dias. O que devo fazer ?"
    }
  },
  "rich-text#answer9": {
    "props": {
      "text": "Caso o produto apresente defeito de fabricação após o prazo de 07(sete) dias do recebimento, você deverá observar o “Contrato de Garantia do Fabricante” contido no Manual de instruções do fabricante. Caso deseje, pode entrar em contato com o fabricante para comunicar o fato e obter esclarecimentos. \n\n Caso não consiga contato com fabricante, por favor entre em contato através das opções disponíveis em nosso <Fale Conosco>"
    }
  },
  "disclosure-layout#ten": {
    "props": {
      "animated": true
    },
    "children": ["disclosure-trigger#ten", "disclosure-content#ten"]
  },
  "disclosure-trigger#ten": {
    "props": {
      "blockClass": "question",
      "as": "div"
    },
    "children": ["rich-text#question10","disclosure-state-indicator"]
  },
  "disclosure-content#ten": {
    "props": {
      "blockClass": "answer"
    },
    "children": ["rich-text#answer10"]
  },
  "rich-text#question10": {
    "props": {
      "text": "Recebi um produto com avaria! O que devo fazer ?"
    }
  },
  "rich-text#answer10": {
    "props": {
      "text": "Se você perceber qualquer tipo de avaria na hora da entrega, você deverá recusar a entrega e entrar em contato conosco. \n\n O contato, poderá ser feito através das opções disponíveis em nosso <Fale Conosco>"
    }
  },
  "disclosure-layout#eleven": {
    "props": {
      "animated": true
    },
    "children": ["disclosure-trigger#eleven", "disclosure-content#eleven"]
  },
  "disclosure-trigger#eleven": {
    "props": {
      "blockClass": "question",
      "as": "div"
    },
    "children": ["rich-text#question11","disclosure-state-indicator"]
  },
  "disclosure-content#eleven": {
    "props": {
      "blockClass": "answer"
    },
    "children": ["rich-text#answer11"]
  },
  "rich-text#question11": {
    "props": {
      "text": "Posso trocar o produto após finalizar o pedido?"
    }
  },
  "rich-text#answer11": {
    "props": {
      "text": "Após a finalização do pedido não é possível realizar qualquer tipo de alteração. Caso queira realizar alguma alteração, será necessário cancelar o pedido e realizar uma nova compra."
    }
  },
  "disclosure-layout#twelve": {
    "props": {
      "animated": true
    },
    "children": ["disclosure-trigger#twelve", "disclosure-content#twelve"]
  },
  "disclosure-trigger#twelve": {
    "props": {
      "blockClass": "question",
      "as": "div"
    },
    "children": ["rich-text#question12","disclosure-state-indicator"]
  },
  "disclosure-content#twelve": {
    "props": {
      "blockClass": "answer"
    },
    "children": ["rich-text#answer12"]
  },
  "rich-text#question12": {
    "props": {
      "text": "Como seria realizado o reembolso do meu dinheiro?"
    }
  },
  "rich-text#answer12": {
    "props": {
      "text": "Após análise e aprovação do produto retornado, a devolução dos valores pagos, ocorrerão na mesma forma de pagamento escolhido no momento da compra: \n\n Em compras com cartão de crédito: a administradora do cartão será notificada e o estorno ocorrerá na fatura seguinte ou na posterior, de uma só vez, seja qual for o número de parcelas utilizado na compra. O prazo de ressarcimento e, ainda, a cobrança das parcelas remanescentes após o estorno integral do valor do Produto no cartão de crédito do Cliente realizada pela UtiliZatto, é de responsabilidade da administradora do cartão. Na hipótese de cobrança de parcelas futuras pela administradora do cartão, o Cliente não será onerado, vez que a UtiliZatto, conforme mencionado acima realiza o estorno do valor integral do Produto em uma única vez, sendo o crédito referente ao estorno concedido integralmente pela administradora do cartão na fatura de cobrança subseqüente ao mês do cancelamento. \n\n Boleto Bancário: a restituição será feita na conta corrente do titular da compra em até 10 (dez) dias úteis, a partir da data de aprovação da análise do produto retornado."
    }
  },
  "disclosure-layout#thirteen": {
    "props": {
      "animated": true
    },
    "children": ["disclosure-trigger#thirteen", "disclosure-content#thirteen"]
  },
  "disclosure-trigger#thirteen": {
    "props": {
      "blockClass": "question",
      "as": "div"
    },
    "children": ["rich-text#question13","disclosure-state-indicator"]
  },
  "disclosure-content#thirteen": {
    "props": {
      "blockClass": "answer"
    },
    "children": ["rich-text#answer13"]
  },
  "rich-text#question13": {
    "props": {
      "text": "Se eu não quiser comprar pelo site, posso fazer minha compra pelo WhatApp ?"
    }
  },
  "rich-text#answer13": {
    "props": {
      "text": "As compras poderão ser realizadas através do WhatApp, mas lembrando que, talvez tenha uma pequena demora no atendimento, pois nosso atendimento não é robotizado."
    }
  },
  
  "disclosure-layout#fourteen": {
    "props": {
      "animated": true
    },
    "children": ["disclosure-trigger#fourteen", "disclosure-content#fourteen"]
  },
  "disclosure-trigger#fourteen": {
    "props": {
      "blockClass": "question",
      "as": "div"
    },
    "children": ["rich-text#question14","disclosure-state-indicator"]
  },
  "disclosure-content#fourteen": {
    "props": {
      "blockClass": "answer"
    },
    "children": ["rich-text#answer14"]
  },
  "rich-text#question14": {
    "props": {
      "text": "Posso pagar meu boleto com cartão de crédito?"
    }
  },
  "rich-text#answer14": {
    "props": {
      "text": "Para pagamentos com cartão de crédito, o pedido estará sujeito à aprovação da operadora administradora do cartão. As informações contidas no cadastro são passíveis de confirmação, que poderá ser solicitada pela UtiliZatto por e-mail."
    }
  },

  "disclosure-layout#fifteen": {
    "props": {
      "animated": true
    },
    "children": ["disclosure-trigger#fifteen", "disclosure-content#fifteen"]
  },
  "disclosure-trigger#fifteen": {
    "props": {
      "blockClass": "question",
      "as": "div"
    },
    "children": ["rich-text#question15","disclosure-state-indicator"]
  },
  "disclosure-content#fifteen": {
    "props": {
      "blockClass": "answer"
    },
    "children": ["rich-text#answer15"]
  },
  "rich-text#question15": {
    "props": {
      "text": "Posso pagar meu boleto com cartão de crédito?"
    }
  },
  "rich-text#answer15": {
    "props": {
      "text": "Para pagamentos com cartão de crédito, o pedido estará sujeito à aprovação da operadora administradora do cartão. As informações contidas no cadastro são passíveis de confirmação, que poderá ser solicitada pela UtiliZatto por e-mail."
    }
  },

  
  "disclosure-layout#sixteen": {
    "props": {
      "animated": true
    },
    "children": ["disclosure-trigger#sixteen", "disclosure-content#sixteen"]
  },
  "disclosure-trigger#sixteen": {
    "props": {
      "blockClass": "question",
      "as": "div"
    },
    "children": ["rich-text#question16","disclosure-state-indicator"]
  },
  "disclosure-content#sixteen": {
    "props": {
      "blockClass": "answer"
    },
    "children": ["rich-text#answer16"]
  },
  "rich-text#question16": {
    "props": {
      "text": "Posso pagar meu boleto com cartão de crédito?"
    }
  },
  "rich-text#answer16": {
    "props": {
      "text": "Para pagamentos com cartão de crédito, o pedido estará sujeito à aprovação da operadora administradora do cartão. As informações contidas no cadastro são passíveis de confirmação, que poderá ser solicitada pela UtiliZatto por e-mail."
    }
  },

  "disclosure-state-indicator": {
		"props": {
		  "Show": "icon-caret#down",
		  "Hide": "icon-caret#up"
		}
	  },
	  "icon-caret#down": {
		"props": {
		  "orientation": "down"
		}
	  },
	  "icon-caret#up": {
		"props": {
		  "orientation": "up"
		}
	  }
  
}
