{
  "header": {
    "blocks": ["header-layout.desktop", "header-layout.mobile"]
  },
  "header.full": {
    "blocks": ["header-layout.desktop", "header-layout.mobile"]
  },
  "header-layout.desktop": {
    "children": [
      "header-row#main-header",
      "header-row#main-menu",
      "link#whatsappfixed"
    ]
  },
  "header-row#main-header": {
    "children": [
      "logo",
      "search-bar",
      "login",
      "minicart.v2"
    ],
    "props": {
      "fullWidth": false,
      "blockClass": "main-header"
    }
  },
  "search-bar": {
    "props": {
      "placeholder": "Digite o produto ou o código que você procura...",
      "inputType": "text"
    }
  },
  "logo": {
    "props": {
      "title": "Utilizatto - ",
      "href": "/",
      "url": "assets/logo/top-logo.png"
    }
  },
  "login": {
    "props": {
      "iconLabel":"Olá, Faça seu Login ou Cadastre-se",
      "hideIconLabel":false,
      "optionsTitle":"Escolha como deseja entrar:",
      "emailAndPasswordTitle": "Entrar",
      "accessCodeTitle": "Log-in com código de acesso",
      "emailPlaceholder": "E-mail",
      "showPasswordVerificationIntoTooltip": true,
      "showIconProfile": true,
      "logInButtonBehavior": "link"
    }
  },
  
  "header-row#main-menu": {
    "children": [
      "vtex.menu@2.x:menu#menu-departments"
    ],
    "props": {
      "fullWidth": false,
      "blockClass": "main-menu"
    }
  },

  "flex-layout.col#spacer": {
    "props": {
      "width": "grow"
    }
  },
  "header-layout.mobile": {
    "children": ["sticky-layout#mobile"]
  },
  "sticky-layout#mobile": {
    "children": ["flex-layout.row#mobile", "flex-layout.row#search-bar-mobile"]
  },
  "flex-layout.row#mobile": {
    "children": [
      "category-menu#category-menu-mobile",
      "logo",
      "flex-layout.col#spacer",
      "login",
      "minicart.v2"
    ],
    "props": {
      "blockClass": "main-header-mobile",
      "preventHorizontalStretch": true,
      "preserveLayoutOnMobile": true,
      "fullWidth": true
    }
  },
  "flex-layout.row#search-bar-mobile": {
    "children": ["search-bar"],
    "props": {
      "blockClass": "search-bar-row-mobile"
    }
  },
  "drawer": {
    "children": []
  },
  "minicart.v2": {
    "props": {
      "MinicartIcon": "icon-cart#minicart-icon"
    },
    "children": ["minicart-base-content"]
  },
  "icon-cart#minicart-icon": {
    "props": {
      "size": 28
    }
  },
  "minicart-base-content": {
    "blocks": ["minicart-empty-state"],
    "children": ["minicart-product-list", "flex-layout.row#minicart-footer"]
  },
  "flex-layout.row#minicart-footer": {
    "props": {
      "blockClass": "minicart-footer"
    },
    "children": ["flex-layout.col#minicart-footer"]
  },
  "flex-layout.col#minicart-footer": {
    "children": ["minicart-summary", "minicart-checkout-button"]
  },
  "minicart-product-list": {
    "blocks": ["product-list#minicart"]
  },
  "product-list#minicart": {
    "blocks": ["product-list-content-mobile"]
  },
  "minicart-summary": {
    "blocks": ["checkout-summary.compact#minicart"]
  },
  
  "checkout-summary.compact#minicart": {
    "children": ["summary-totalizers#minicart"],
    "props": {
      "totalizersToShow": ["Items", "Discounts"]
    }
  },
  "summary-totalizers#minicart": {
    "props": {
      "showTotal": true,
      "showDeliveryTotal": false
    }
  },
  "minicart-empty-state": {
    "children": ["flex-layout.row#empty-state"]
  },
  "flex-layout.row#empty-state": {
    "children": ["flex-layout.col#empty-state"]
  },
  "flex-layout.col#empty-state": {
    "children": [
      "icon-cart#minicart-empty-state",
      "rich-text#minicart-default-empty-state"
    ],
    "props": {
      "horizontalAlign": "center",
      "verticalAlign": "middle",
      "rowGap": 5
    }
  },
  "icon-cart#minicart-empty-state": {
    "props": {
      "size": 64,
      "blockClass": "minicart-empty-state"
    }
  },
  "rich-text#minicart-default-empty-state": {
    "props": {
      "text": "Seu carrinho está vazio."
    }
  },
  "link#whatsappfixed": {
    "children": [
      "image#whatsapp"
    ],
    "props": {
      "href": "https://api.whatsapp.com/send?phone=5521979676893",
      "target": "_blank",
      "blockClass": "whatsappLinkFixed"
    }
  },
  "image#whatsapp": {
    "props": {
      "src": "assets/svg/whatsapp-fixed.svg",
      "width": "90",
      "link": "/representantes",
      "alt": "whatsapp",
      "title": "whatsapp",
      "blockClass": "img-whatsapp"
    }
  }
 }