{
  "flex-layout.row#tip1": {
    "children": ["rich-text#tip1","rich-text#text1"],
    "props": {
      "blockClass": "row-itens-benefits"
    }
  },
  "flex-layout.row#tip2": {
    "children": ["rich-text#tip2","rich-text#text2"],
    "props": {
      "blockClass": "row-itens-benefits"
    }
  },
  "flex-layout.row#tip3": {
    "children": ["rich-text#tip3","rich-text#text3"],
    "props": {
      "blockClass": "row-itens-benefits"
    }
  },
  "flex-layout.row#tip4": {
    "children": ["rich-text#tip4","rich-text#text4"],
    "props": {
      "blockClass": "row-itens-benefits"
    }
  },
  "rich-text#tip1": {
    "props": {
      "textPosition": "LEFT",
      "text": "![Icon benefits1](assets/svg/icone-frete.svg)",
      "width":"30%"
    }
  },
  "rich-text#text1": {
    "props": {
      "textPosition": "LEFT",
      "text": "**frete grátis** RJ em compras acima de R$100"
    }
  },
  "rich-text#tip2": {
    "props": {
      "textPosition": "LEFT",
      "text": "![Icon benefits2](assets/svg/icone-parcelas.svg)",
      "textColor": "hover-on-emphasis",
      "width":"30%"
    }
  },
  "rich-text#text2": {
    "props": {
      "textPosition": "LEFT",
      "text": "**Parcele** em até 10x nos cartões",
      "textColor": "hover-on-emphasis"
    }
  },
  "rich-text#tip3": {
    "props": {
      "textPosition": "LEFT",
      "text": "![Icon benefits3](assets/svg/icone-seguranca.svg)",
      "width":"30%"
    }
  },
  "rich-text#text3": {
    "props": {
      "textPosition": "LEFT",
      "text": "**Loja Segura** proteção antifraude"
    }
  },
  "rich-text#tip4": {
    "props": {
      "textPosition": "LEFT",
      "text": "![Icon benefits4](assets/svg/icone-atendimento.svg)",
      "width":"30%"
    }
  },
  "rich-text#text4": {
    "props": {
      "textPosition": "LEFT",
      "text": "**Atendimento** (21) 97967-6893"
    }
  }
}